{
  "project_info": {
    "project_number": "273494825903",
    "firebase_url": "https://wolfs-place.firebaseio.com",
    "project_id": "wolfs-place",
    "storage_bucket": "wolfs-place.appspot.com"
  },
  "client": [
    {
      "client_info": {
        "mobilesdk_app_id": "1:273494825903:android:9adc60d7e96d223482ad5a",
        "android_client_info": {
          "package_name": "com.woolfs.pplace"
        }
      },
      "oauth_client": [
        {
          "client_id": "273494825903-08akoitojj4sc3brnrau4mbja6a9ps2g.apps.googleusercontent.com",
          "client_type": 3
        }
      ],
      "api_key": [
        {
          "current_key": "AIzaSyD0VUZ1c8Y6Nhc2Q-7L5a5oCINnoFX10wQ"
        }
      ],
      "services": {
        "appinvite_service": {
          "other_platform_oauth_client": [
            {
              "client_id": "273494825903-08akoitojj4sc3brnrau4mbja6a9ps2g.apps.googleusercontent.com",
              "client_type": 3
            }
          ]
        }
      }
    }
  ],
  "configuration_version": "1"
}